module github.com/roboscale/robot

go 1.16

require (
	github.com/onsi/ginkgo v1.16.4
	github.com/onsi/gomega v1.15.0
	k8s.io/api v0.22.1
	k8s.io/apimachinery v0.22.1
	k8s.io/client-go v0.22.1
	sigs.k8s.io/controller-runtime v0.10.0
)
